;98;16.11.2009;63;Ł«źĄ«š­  ;665800519293;16.11.2009;;450.68;0.00;0.00;0.00;0.00;0.00;450.68;0.00;
;98;16.11.2009;64;Ł«źĄ«š­  ;665800519293;16.11.2009;;181.39;0.00;0.00;0.00;0.00;0.00;181.39;0.00;
;98;16.11.2009;2;Ł«źĄ«š­  ;665800519293;16.11.2009;;168.54;0.00;0.00;0.00;0.00;0.00;168.54;0.00;
;98;16.11.2009;7;Ł«źĄ«š­  ;665800519293;16.11.2009;;46.03;0.00;0.00;0.00;0.00;0.00;46.03;0.00;
;98;16.11.2009;36;Ł«źĄ«š­  ;665800519293;16.11.2009;;657.95;0.00;0.00;0.00;0.00;0.00;657.95;0.00;
;98;16.11.2009;5;Ł«źĄ«š­  ;665800519293;16.11.2009;;89.90;0.00;0.00;0.00;0.00;0.00;89.90;0.00;
;98;16.11.2009;29125; "àź€á„àąšá";6670170834;16.11.2009;;5058.00;0.00;0.00;0.00;0.00;0.00;5058.00;0.00;
;98;16.11.2009;29002; "àź€á„àąšá";6670170834;16.11.2009;;36136.40;0.00;0.00;0.00;0.00;0.00;36136.40;0.00;
;98;16.11.2009;113;Ł«źĄ«š­  ;665800519293;16.11.2009;;146.80;0.00;0.00;0.00;0.00;0.00;146.80;0.00;
;98;16.11.2009;3286;" źàà„Șá";6662119249;16.11.2009;;5200.00;0.00;0.00;0.00;0.00;0.00;5200.00;0.00;
;98;16.11.2009;11298;àźŹâźàŁ;6671177529;16.11.2009;;1165.00;0.00;0.00;0.00;0.00;0.00;1165.00;0.00;
;98;16.11.2009;839;â„Ż ­źą;663903449020;16.11.2009;;537.90;0.00;0.00;0.00;0.00;0.00;537.90;0.00;
;98;17.11.2009;8;Ł«źĄ«š­  ;665800519293;17.11.2009;;111.74;0.00;0.00;0.00;0.00;0.00;111.74;0.00;
;98;17.11.2009;25066;000 "«šŹŻ";6674319556;17.11.2009;;2198.00;0.00;0.00;0.00;0.00;0.00;2198.00;0.00;
;98;17.11.2009;108;Ł«źĄ«š­  ;665800519293;17.11.2009;;95.20;0.00;0.00;0.00;0.00;0.00;95.20;0.00;
;98;17.11.2009;23;Ł«źĄ«š­  ;665800519293;17.11.2009;;904.42;0.00;0.00;0.00;0.00;0.00;904.42;0.00;
;98;17.11.2009;43;Ł«źĄ«š­  ;665800519293;17.11.2009;;27.75;0.00;0.00;0.00;0.00;0.00;27.75;0.00;
;98;17.11.2009;25029;źî§ Żà„€Żàš­šŹ â„«„©;6659058042;17.11.2009;;5570.00;0.00;0.00;0.00;0.00;0.00;5570.00;0.00;
;98;17.11.2009;18038;źàźèš© ąȘăá;6604011366;17.11.2009;;5795.29;0.00;0.00;0.00;0.00;0.00;5795.29;0.00;
;98;17.11.2009;24;Ł«źĄ«š­  ;665800519293;17.11.2009;;75.22;0.00;0.00;0.00;0.00;0.00;75.22;0.00;
;98;17.11.2009;100644/6961;­š«„­€;6661064100;17.11.2009;;2109.00;0.00;0.00;0.00;0.00;0.00;2109.00;0.00;
;98;17.11.2009;100645/6405;­š«„­€;6661064100;17.11.2009;;2830.80;0.00;0.00;0.00;0.00;0.00;2830.80;0.00;
;98;17.11.2009;187846;„àą ï Źź«źç­ ï ȘźŹŻ ­šï;6659155832;17.11.2009;;2534.01;0.00;0.00;0.00;0.00;0.00;2534.01;0.00;
;98;17.11.2009;92;Ł«źĄ«š­  ;665800519293;17.11.2009;;398.40;0.00;0.00;0.00;0.00;0.00;398.40;0.00;
;98;17.11.2009;39538;âšæ„ä ĄàšȘ  ą„à€«źąáȘ ï;6662000564;17.11.2009;;5951.74;0.00;0.00;0.00;0.00;0.00;5951.74;0.00;
;98;18.11.2009;50746;"ź€źą š  àâ­„à;6674314854;18.11.2009;;696.99;0.00;0.00;0.00;0.00;0.00;696.99;0.00;
;98;18.11.2009;55730;« €źȘźŹĄš­ â ü2;6660122849;18.11.2009;;1845.00;0.00;0.00;0.00;0.00;0.00;1845.00;0.00;
;98;18.11.2009;60347;­â„àȘźŹ;6660098716;18.11.2009;;3580.77;0.00;0.00;0.00;0.00;0.00;3580.77;0.00;
;98;18.11.2009;4998; Łš„ą ..;667005874320;18.11.2009;;415.00;0.00;0.00;0.00;0.00;0.00;415.00;0.00;
;98;18.11.2009;65;Ł«źĄ«š­  ;665800519293;18.11.2009;;61.80;0.00;0.00;0.00;0.00;0.00;61.80;0.00;
;98;18.11.2009;35;Ł«źĄ«š­  ;665800519293;18.11.2009;;424.11;0.00;0.00;0.00;0.00;0.00;424.11;0.00;
;98;18.11.2009;1231; "­âà ";6662095894;18.11.2009;;1947.00;0.00;0.00;0.00;0.00;0.00;1947.00;0.00;
;98;18.11.2009;67;Ł«źĄ«š­  ;665800519293;18.11.2009;;195.73;0.00;0.00;0.00;0.00;0.00;195.73;0.00;
;98;19.11.2009;7;Ł«źĄ«š­  ;665800519293;19.11.2009;;938.62;0.00;0.00;0.00;0.00;0.00;938.62;0.00;
;98;19.11.2009;25;Ł«źĄ«š­  ;665800519293;19.11.2009;;124.55;0.00;0.00;0.00;0.00;0.00;124.55;0.00;
;98;19.11.2009;27385; ć à­ë„ âà €šæšš;6670003897;19.11.2009;;2394.00;0.00;0.00;0.00;0.00;0.00;2394.00;0.00;
;98;19.11.2009;90;Ł«źĄ«š­  ;665800519293;19.11.2009;;57.53;0.00;0.00;0.00;0.00;0.00;57.53;0.00;
;98;19.11.2009;57;Ł«źĄ«š­  ;665800519293;19.11.2009;;253.45;0.00;0.00;0.00;0.00;0.00;253.45;0.00;
;98;19.11.2009;27500; à «;6652023386;19.11.2009;;2336.64;0.00;0.00;0.00;0.00;0.00;2336.64;0.00;
;98;19.11.2009;3298;" źàà„Șá";6662119249;19.11.2009;;3995.50;0.00;0.00;0.00;0.00;0.00;3995.50;0.00;
;98;20.11.2009;31;Ł«źĄ«š­  ;665800519293;20.11.2009;;1291.37;0.00;0.00;0.00;0.00;0.00;1291.37;0.00;
;98;20.11.2009;108;Ł«źĄ«š­  ;665800519293;20.11.2009;;458.44;0.00;0.00;0.00;0.00;0.00;458.44;0.00;
;98;20.11.2009;206;Ł«źĄ«š­  ;665800519293;20.11.2009;;37.60;0.00;0.00;0.00;0.00;0.00;37.60;0.00;
;98;20.11.2009;25369;źî§ Żà„€Żàš­šŹ â„«„©;6659058042;20.11.2009;;244.20;0.00;0.00;0.00;0.00;0.00;244.20;0.00;
;98;20.11.2009;29649; "àź€á„àąšá";6670170834;20.11.2009;;21205.80;0.00;0.00;0.00;0.00;0.00;21205.80;0.00;
;98;21.11.2009;851;â„Ż ­źą;663903449020;21.11.2009;;1022.80;0.00;0.00;0.00;0.00;0.00;1022.80;0.00;
;98;23.11.2009;11;Ł«źĄ«š­  ;665800519293;23.11.2009;;1497.09;0.00;0.00;0.00;0.00;0.00;1497.09;0.00;
;98;23.11.2009;7;Ł«źĄ«š­  ;665800519293;23.11.2009;;449.69;0.00;0.00;0.00;0.00;0.00;449.69;0.00;
;98;23.11.2009;165;;;23.11.2009;;208.63;0.00;0.00;0.00;0.00;0.00;208.63;0.00;
;98;23.11.2009;51;Ł«źĄ«š­  ;665800519293;23.11.2009;;571.30;0.00;0.00;0.00;0.00;0.00;571.30;0.00;
;98;23.11.2009;68;Ł«źĄ«š­  ;665800519293;23.11.2009;;172.57;0.00;0.00;0.00;0.00;0.00;172.57;0.00;
;98;23.11.2009;5353;«ëĄȘ  „â ;6670064709;23.11.2009;;1438.00;0.00;0.00;0.00;0.00;0.00;1438.00;0.00;
;98;23.11.2009;191377;„àą ï Źź«źç­ ï ȘźŹŻ ­šï;6659155832;23.11.2009;;1639.99;0.00;0.00;0.00;0.00;0.00;1639.99;0.00;
;98;23.11.2009;179;Ł«źĄ«š­  ;665800519293;23.11.2009;;218.02;0.00;0.00;0.00;0.00;0.00;218.02;0.00;
;98;24.11.2009;5060; Łš„ą ..;667005874320;24.11.2009;;305.00;0.00;0.00;0.00;0.00;0.00;305.00;0.00;
;98;24.11.2009;25348;000 "«šŹŻ";6674319556;24.11.2009;;2198.00;0.00;0.00;0.00;0.00;0.00;2198.00;0.00;
;98;24.11.2009;25620;źî§ Żà„€Żàš­šŹ â„«„©;6659058042;24.11.2009;;4890.00;0.00;0.00;0.00;0.00;0.00;4890.00;0.00;
;98;24.11.2009;58;Ł«źĄ«š­  ;665800519293;24.11.2009;;1189.83;0.00;0.00;0.00;0.00;0.00;1189.83;0.00;
;98;24.11.2009;12;âšæ„ä ĄàšȘ  ą„à€«źąáȘ ï;6662000564;24.11.2009;;6050.52;0.00;0.00;0.00;0.00;0.00;6050.52;0.00;
;98;24.11.2009;85;Ł«źĄ«š­  ;665800519293;24.11.2009;;30.60;0.00;0.00;0.00;0.00;0.00;30.60;0.00;
;98;24.11.2009;27777; ć à­ë„ âà €šæšš;6670003897;24.11.2009;;10440.00;0.00;0.00;0.00;0.00;0.00;10440.00;0.00;
;98;25.11.2009;25675;„àą ï Źź«źç­ ï ȘźŹŻ ­šï;6659155832;25.11.2009;;660.07;0.00;0.00;0.00;0.00;0.00;660.07;0.00;
;98;25.11.2009;20;Ł«źĄ«š­  ;665800519293;25.11.2009;;789.91;0.00;0.00;0.00;0.00;0.00;789.91;0.00;
;98;25.11.2009;30326; "àź€á„àąšá";6670170834;25.11.2009;;29704.30;0.00;0.00;0.00;0.00;0.00;29704.30;0.00;
;98;25.11.2009;56745;« €źȘźŹĄš­ â ü2;6660122849;25.11.2009;;3299.63;0.00;0.00;0.00;0.00;0.00;3299.63;0.00;
;98;25.11.2009;51172;"ź€źą š  àâ­„à;6674314854;25.11.2009;;721.33;0.00;0.00;0.00;0.00;0.00;721.33;0.00;
;98;25.11.2009;103520/20980;­š«„­€;6661064100;25.11.2009;;3142.60;0.00;0.00;0.00;0.00;0.00;3142.60;0.00;
;98;25.11.2009;103519/20979;­š«„­€;6661064100;25.11.2009;;1536.40;0.00;0.00;0.00;0.00;0.00;1536.40;0.00;
;98;25.11.2009;103418/20978;­š«„­€;6661064100;25.11.2009;;2571.84;0.00;0.00;0.00;0.00;0.00;2571.84;0.00;
;98;25.11.2009;197;Ł«źĄ«š­  ;665800519293;25.11.2009;;75.80;0.00;0.00;0.00;0.00;0.00;75.80;0.00;
;98;25.11.2009;600946;  ;6662102157;25.11.2009;;8082.26;0.00;0.00;0.00;0.00;0.00;8082.26;0.00;
;98;26.11.2009;35;Ł«źĄ«š­  ;665800519293;26.11.2009;;289.94;0.00;0.00;0.00;0.00;0.00;289.94;0.00;
;98;26.11.2009;14;Ł«źĄ«š­  ;665800519293;26.11.2009;;844.88;0.00;0.00;0.00;0.00;0.00;844.88;0.00;
;98;26.11.2009;7120; ŻâšŹ ;6670266825;26.11.2009;;7979.96;0.00;0.00;0.00;0.00;0.00;7979.96;0.00;
;98;27.11.2009;16;Ł«źĄ«š­  ;665800519293;27.11.2009;;1297.24;0.00;0.00;0.00;0.00;0.00;1297.24;0.00;
;98;27.11.2009;34;Ł«źĄ«š­  ;665800519293;27.11.2009;;1103.57;0.00;0.00;0.00;0.00;0.00;1103.57;0.00;
;98;27.11.2009;23;Ł«źĄ«š­  ;665800519293;27.11.2009;;155.36;0.00;0.00;0.00;0.00;0.00;155.36;0.00;
;98;27.11.2009;35;Ł«źĄ«š­  ;665800519293;27.11.2009;;23.99;0.00;0.00;0.00;0.00;0.00;23.99;0.00;
;98;27.11.2009;46;Ł«źĄ«š­  ;665800519293;27.11.2009;;253.60;0.00;0.00;0.00;0.00;0.00;253.60;0.00;
;98;27.11.2009;873;â„Ż ­źą;663903449020;27.11.2009;;858.20;0.00;0.00;0.00;0.00;0.00;858.20;0.00;
;98;27.11.2009;65814; „«šą ­źą ;667219504246;27.11.2009;;1780.00;0.00;0.00;0.00;0.00;0.00;1780.00;0.00;
;98;28.11.2009;5105; Łš„ą ..;667005874320;28.11.2009;;110.00;0.00;0.00;0.00;0.00;0.00;110.00;0.00;
;98;28.11.2009;194657;„àą ï Źź«źç­ ï ȘźŹŻ ­šï;6659155832;28.11.2009;;2239.98;0.00;0.00;0.00;0.00;0.00;2239.98;0.00;
;98;28.11.2009;59447;âšæ„ä ĄàšȘ  „äâš­áȘ ï;6603003059;28.11.2009;;1283.70;0.00;0.00;0.00;0.00;0.00;1283.70;0.00;
;98;30.11.2009;26114;źî§ Żà„€Żàš­šŹ â„«„©;6659058042;30.11.2009;;4890.00;0.00;0.00;0.00;0.00;0.00;4890.00;0.00;
;98;30.11.2009;49;Ł«źĄ«š­  ;665800519293;30.11.2009;;1488.89;0.00;0.00;0.00;0.00;0.00;1488.89;0.00;
;98;30.11.2009;12219;àźŹâźàŁ;6671177529;30.11.2009;;582.50;0.00;0.00;0.00;0.00;0.00;582.50;0.00;
;98;30.11.2009;878;â„Ż ­źą;663903449020;30.11.2009;;486.40;0.00;0.00;0.00;0.00;0.00;486.40;0.00;
;98;01.12.2009;72550;ëàźĄźŁ âźą  ;6672135507;01.12.2009;;3325.96;0.00;0.00;0.00;0.00;0.00;3325.96;0.00;
;98;01.12.2009;25653;000 "«šŹŻ";6674319556;01.12.2009;;3837.00;0.00;0.00;0.00;0.00;0.00;3837.00;0.00;
;98;01.12.2009;23;Ł«źĄ«š­  ;665800519293;01.12.2009;;151.53;0.00;0.00;0.00;0.00;0.00;151.53;0.00;
;98;01.12.2009;103;Ł«źĄ«š­  ;665800519293;01.12.2009;;61.80;0.00;0.00;0.00;0.00;0.00;61.80;0.00;
;98;01.12.2009;1315869-71;„Żášź  ź«€š­Łá;7705034202;01.12.2009;;1042.61;0.00;0.00;0.00;0.00;0.00;1042.61;0.00;
;98;01.12.2009;41291;âšæ„ä ĄàšȘ  ą„à€«źąáȘ ï;6662000564;01.12.2009;;6050.52;0.00;0.00;0.00;0.00;0.00;6050.52;0.00;
;98;02.12.2009;26251;„àą ï Źź«źç­ ï ȘźŹŻ ­šï;6659155832;02.12.2009;;588.06;0.00;0.00;0.00;0.00;0.00;588.06;0.00;
;98;02.12.2009;26329;źî§ Żà„€Żàš­šŹ â„«„©;6659058042;02.12.2009;;4890.00;0.00;0.00;0.00;0.00;0.00;4890.00;0.00;
;98;02.12.2009;19;Ł«źĄ«š­  ;665800519293;02.12.2009;;53.14;0.00;0.00;0.00;0.00;0.00;53.14;0.00;
;98;02.12.2009;4;Ł«źĄ«š­  ;665800519293;02.12.2009;;1275.66;0.00;0.00;0.00;0.00;0.00;1275.66;0.00;
;98;02.12.2009;26;Ł«źĄ«š­  ;665800519293;02.12.2009;;925.11;0.00;0.00;0.00;0.00;0.00;925.11;0.00;
;98;02.12.2009;13;Ł«źĄ«š­  ;665800519293;02.12.2009;;103.88;0.00;0.00;0.00;0.00;0.00;103.88;0.00;
;98;02.12.2009;129;Ł«źĄ«š­  ;665800519293;02.12.2009;;81.45;0.00;0.00;0.00;0.00;0.00;81.45;0.00;
;98;02.12.2009;21;Ł«źĄ«š­  ;665800519293;02.12.2009;;432.55;0.00;0.00;0.00;0.00;0.00;432.55;0.00;
;98;02.12.2009;603094;  ;6662102157;02.12.2009;;6405.92;0.00;0.00;0.00;0.00;0.00;6405.92;0.00;
;98;02.12.2009;44533;" àš";6660149784;02.12.2009;;10161.86;0.00;0.00;0.00;0.00;0.00;10161.86;0.00;
;98;02.12.2009;105668/32645;­š«„­€;6661064100;02.12.2009;;2909.00;0.00;0.00;0.00;0.00;0.00;2909.00;0.00;
;98;02.12.2009;105672/32644;­š«„­€;6661064100;02.12.2009;;2088.40;0.00;0.00;0.00;0.00;0.00;2088.40;0.00;
;98;02.12.2009;875;â„Ż ­źą;663903449020;02.12.2009;;498.30;0.00;0.00;0.00;0.00;0.00;498.30;0.00;
;98;02.12.2009;5136; Łš„ą ..;667005874320;02.12.2009;;305.00;0.00;0.00;0.00;0.00;0.00;305.00;0.00;
;98;02.12.2009;57968;« €źȘźŹĄš­ â ü2;6660122849;02.12.2009;;1044.20;0.00;0.00;0.00;0.00;0.00;1044.20;0.00;
;98;02.12.2009;57956;« €źȘźŹĄš­ â ü2;6660122849;02.12.2009;;1295.00;0.00;0.00;0.00;0.00;0.00;1295.00;0.00;
;98;02.12.2009;426824;źàźèš© ąȘăá;6604011366;02.12.2009;;4615.83;0.00;0.00;0.00;0.00;0.00;4615.83;0.00;
;98;02.12.2009;31050; "àź€á„àąšá";6670170834;02.12.2009;;49564.10;0.00;0.00;0.00;0.00;0.00;49564.10;0.00;
;98;02.12.2009;51543;"ź€źą š  àâ­„à;6674314854;02.12.2009;;730.02;0.00;0.00;0.00;0.00;0.00;730.02;0.00;
;98;03.12.2009;20;Ł«źĄ«š­  ;665800519293;03.12.2009;;766.07;0.00;0.00;0.00;0.00;0.00;766.07;0.00;
;98;03.12.2009;19;Ł«źĄ«š­  ;665800519293;03.12.2009;;67.77;0.00;0.00;0.00;0.00;0.00;67.77;0.00;
;98;03.12.2009;1320; "­âà ";6662095894;03.12.2009;;5922.10;0.00;0.00;0.00;0.00;0.00;5922.10;0.00;
;98;03.12.2009;74;Ł«źĄ«š­  ;665800519293;03.12.2009;;283.20;0.00;0.00;0.00;0.00;0.00;283.20;0.00;
;98;04.12.2009;23;Ł«źĄ«š­  ;665800519293;04.12.2009;;1436.38;0.00;0.00;0.00;0.00;0.00;1436.38;0.00;
;98;04.12.2009;28;Ł«źĄ«š­  ;665800519293;04.12.2009;;114.46;0.00;0.00;0.00;0.00;0.00;114.46;0.00;
;98;04.12.2009;023;Ł«źĄ«š­  ;665800519293;04.12.2009;;557.11;0.00;0.00;0.00;0.00;0.00;557.11;0.00;
;98;04.12.2009;5164; Łš„ą ..;667005874320;04.12.2009;;415.00;0.00;0.00;0.00;0.00;0.00;415.00;0.00;
;98;04.12.2009;28922; à «;6652023386;04.12.2009;;786.12;0.00;0.00;0.00;0.00;0.00;786.12;0.00;
;98;04.12.2009;28923; à «;6652023386;04.12.2009;;1857.24;0.00;0.00;0.00;0.00;0.00;1857.24;0.00;
;98;06.12.2009;198905;„àą ï Źź«źç­ ï ȘźŹŻ ­šï;6659155832;06.12.2009;;1639.99;0.00;0.00;0.00;0.00;0.00;1639.99;0.00;
;98;07.12.2009;9;Ł«źĄ«š­  ;665800519293;07.12.2009;;17.75;0.00;0.00;0.00;0.00;0.00;17.75;0.00;
;98;07.12.2009;7;Ł«źĄ«š­  ;665800519293;07.12.2009;;308.09;0.00;0.00;0.00;0.00;0.00;308.09;0.00;
;98;07.12.2009;29;Ł«źĄ«š­  ;665800519293;07.12.2009;;930.63;0.00;0.00;0.00;0.00;0.00;930.63;0.00;
;98;07.12.2009;117;Ł«źĄ«š­  ;665800519293;07.12.2009;;19.26;0.00;0.00;0.00;0.00;0.00;19.26;0.00;
;98;07.12.2009;26725;źî§ Żà„€Żàš­šŹ â„«„©;6659058042;07.12.2009;;4890.00;0.00;0.00;0.00;0.00;0.00;4890.00;0.00;
;98;07.12.2009;897;â„Ż ­źą;663903449020;07.12.2009;;901.90;0.00;0.00;0.00;0.00;0.00;901.90;0.00;
